%YAML 1.1
%TAG !u! tag:unity3d.com,2011:
--- !u!21 &2100000
Material:
  serializedVersion: 6
  m_ObjectHideFlags: 0
  m_CorrespondingSourceObject: {fileID: 0}
  m_PrefabInstance: {fileID: 0}
  m_PrefabAsset: {fileID: 0}
  m_Name: BasketballMarkingWhite02_mtl
  m_Shader: {fileID: 4800000, guid: e7c33d77b08fc8d43a4967dd3ae5e038, type: 3}
  m_ShaderKeywords: _ALPHABLEND_ON _EMISSION _ROTATEC_ON
  m_LightmapFlags: 5
  m_EnableInstancingVariants: 0
  m_DoubleSidedGI: 0
  m_CustomRenderQueue: -1
  stringTagMap: {}
  disabledShaderPasses: []
  m_SavedProperties:
    serializedVersion: 3
    m_TexEnvs:
    - _BumpMap:
        m_Texture: {fileID: 0}
        m_Scale: {x: 3, y: 3}
        m_Offset: {x: 0, y: 0}
    - _DetailAlbedoMap:
        m_Texture: {fileID: 0}
        m_Scale: {x: 1, y: 1}
        m_Offset: {x: 0, y: 0}
    - _DetailMask:
        m_Texture: {fileID: 0}
        m_Scale: {x: 1, y: 1}
        m_Offset: {x: 0, y: 0}
    - _DetailNormalMap:
        m_Texture: {fileID: 0}
        m_Scale: {x: 1, y: 1}
        m_Offset: {x: 0, y: 0}
    - _EmissionMap:
        m_Texture: {fileID: 0}
        m_Scale: {x: 1, y: 1}
        m_Offset: {x: 0, y: 0}
    - _Glossiness:
        m_Texture: {fileID: 0}
        m_Scale: {x: 1, y: 1}
        m_Offset: {x: 0, y: 0}
    - _MainTex:
        m_Texture: {fileID: 2800000, guid: 979c8493035cce24880173c653a7bcca, type: 3}
        m_Scale: {x: 1, y: 1}
        m_Offset: {x: 0, y: 0.5}
    - _MetallicGlossMap:
        m_Texture: {fileID: 0}
        m_Scale: {x: 1, y: 1}
        m_Offset: {x: 0, y: 0}
    - _Normal:
        m_Texture: {fileID: 2800000, guid: 936502a5c8e0a03458937643668e66c5, type: 3}
        m_Scale: {x: 1, y: 1}
        m_Offset: {x: 0, y: 0}
    - _OcclusionMap:
        m_Texture: {fileID: 0}
        m_Scale: {x: 1, y: 1}
        m_Offset: {x: 0, y: 0}
    - _ParallaxMap:
        m_Texture: {fileID: 0}
        m_Scale: {x: 1, y: 1}
        m_Offset: {x: 0, y: 0}
    - _SpecGlossMap:
        m_Texture: {fileID: 0}
        m_Scale: {x: 1, y: 1}
        m_Offset: {x: 0, y: 0}
    - _SpecularRGBGlossA:
        m_Texture: {fileID: 0}
        m_Scale: {x: 1, y: 1}
        m_Offset: {x: 0, y: 0.5}
    m_Floats:
    - _AlphaCutoff: 0.17
    - _Angle: 90
    - _BumpScale: 1
    - _Contrast: 5
    - _Cutoff: 0.8
    - _DepthFade: 1
    - _DetailNormalMapScale: 1
    - _DstBlend: 10
    - _FadeContrast: 1
    - _Gloss: 0.346
    - _GlossMapScale: 1
    - _GlossMultiply: 0.283
    - _Glossiness: 0.28
    - _GlossyReflections: 1
    - _Metallic: 0
    - _Mode: 2
    - _NormalIntensity: 0.5
    - _OcclusionStrength: 1
    - _OffsetX: 0
    - _OffsetY: 0
    - _OpacityContrast: 2
    - _Parallax: 0.02
    - _RotateA: 0
    - _RotateB: 0
    - _RotateBy180: 0
    - _RotateBy90: 0
    - _RotateC: 1
    - _SmoothnessTextureChannel: 0
    - _Specular: 1
    - _SpecularHighlights: 1
    - _SrcBlend: 5
    - _Tiling: 0.25
    - _UVSec: 0
    - _ZWrite: 0
    - __dirty: 0
    m_Colors:
    - _Color: {r: 0.691, g: 0.6640188, b: 0.63511026, a: 1}
    - _EmissionColor: {r: 0, g: 0, b: 0, a: 1}
    - _SpecColor: {r: 1, g: 1, b: 1, a: 1}
  m_BuildTextureStacks: []
