%YAML 1.1
%TAG !u! tag:unity3d.com,2011:
--- !u!29 &1
OcclusionCullingSettings:
  m_ObjectHideFlags: 0
  serializedVersion: 2
  m_OcclusionBakeSettings:
    smallestOccluder: 3
    smallestHole: 0.1
    backfaceThreshold: 100
  m_SceneGUID: c1a22722f8ff3d943963d8b832a0ff4b
  m_OcclusionCullingData: {fileID: 36300000, guid: b754f6e260ecab84991b89c528d7b6fa, type: 2}
--- !u!104 &2
RenderSettings:
  m_ObjectHideFlags: 0
  serializedVersion: 9
  m_Fog: 1
  m_FogColor: {r: 0.541, g: 0.42007056, b: 0.31027943, a: 1}
  m_FogMode: 2
  m_FogDensity: 0.001
  m_LinearFogStart: 0
  m_LinearFogEnd: 300
  m_AmbientSkyColor: {r: 0.212, g: 0.227, b: 0.259, a: 1}
  m_AmbientEquatorColor: {r: 0.114, g: 0.125, b: 0.133, a: 1}
  m_AmbientGroundColor: {r: 0.047, g: 0.043, b: 0.035, a: 1}
  m_AmbientIntensity: 1.4
  m_AmbientMode: 0
  m_SubtractiveShadowColor: {r: 0.42, g: 0.478, b: 0.627, a: 1}
  m_SkyboxMaterial: {fileID: 2100000, guid: 09614937033147a44b00b07c96820e9f, type: 2}
  m_HaloStrength: 0.5
  m_FlareStrength: 1
  m_FlareFadeSpeed: 3
  m_HaloTexture: {fileID: 0}
  m_SpotCookie: {fileID: 10001, guid: 0000000000000000e000000000000000, type: 0}
  m_DefaultReflectionMode: 0
  m_DefaultReflectionResolution: 128
  m_ReflectionBounces: 1
  m_ReflectionIntensity: 1
  m_CustomReflection: {fileID: 0}
  m_Sun: {fileID: 0}
  m_IndirectSpecularColor: {r: 2.2339506, g: 1.6147848, b: 1.2730113, a: 1}
  m_UseRadianceAmbientProbe: 0
--- !u!157 &3
LightmapSettings:
  m_ObjectHideFlags: 0
  serializedVersion: 12
  m_GIWorkflowMode: 1
  m_GISettings:
    serializedVersion: 2
    m_BounceScale: 1
    m_IndirectOutputScale: 1
    m_AlbedoBoost: 1
    m_EnvironmentLightingMode: 0
    m_EnableBakedLightmaps: 1
    m_EnableRealtimeLightmaps: 0
  m_LightmapEditorSettings:
    serializedVersion: 12
    m_Resolution: 3
    m_BakeResolution: 28
    m_AtlasSize: 2048
    m_AO: 0
    m_AOMaxDistance: 1
    m_CompAOExponent: 1
    m_CompAOExponentDirect: 0
    m_ExtractAmbientOcclusion: 0
    m_Padding: 4
    m_LightmapParameters: {fileID: 15203, guid: 0000000000000000f000000000000000, type: 0}
    m_LightmapsBakeMode: 1
    m_TextureCompression: 1
    m_FinalGather: 1
    m_FinalGatherFiltering: 1
    m_FinalGatherRayCount: 256
    m_ReflectionCompression: 2
    m_MixedBakeMode: 2
    m_BakeBackend: 1
    m_PVRSampling: 1
    m_PVRDirectSampleCount: 32
    m_PVRSampleCount: 500
    m_PVRBounces: 2
    m_PVREnvironmentSampleCount: 256
    m_PVREnvironmentReferencePointCount: 2048
    m_PVRFilteringMode: 2
    m_PVRDenoiserTypeDirect: 1
    m_PVRDenoiserTypeIndirect: 1
    m_PVRDenoiserTypeAO: 0
    m_PVRFilterTypeDirect: 1
    m_PVRFilterTypeIndirect: 1
    m_PVRFilterTypeAO: 0
    m_PVREnvironmentMIS: 1
    m_PVRCulling: 1
    m_PVRFilteringGaussRadiusDirect: 1
    m_PVRFilteringGaussRadiusIndirect: 5
    m_PVRFilteringGaussRadiusAO: 2
    m_PVRFilteringAtrousPositionSigmaDirect: 0.5
    m_PVRFilteringAtrousPositionSigmaIndirect: 2
    m_PVRFilteringAtrousPositionSigmaAO: 1
    m_ExportTrainingData: 0
    m_TrainingDataDestination: TrainingData
    m_LightProbeSampleCountMultiplier: 4
  m_LightingDataAsset: {fileID: 112000000, guid: a63ad38582c18f1499bb8cecf25fe624, type: 2}
  m_LightingSettings: {fileID: 4890085278179872738, guid: 0b65ded9eb69ab345aef565fb9fb5c27, type: 2}
--- !u!196 &4
NavMeshSettings:
  serializedVersion: 2
  m_ObjectHideFlags: 0
  m_BuildSettings:
    serializedVersion: 2
    agentTypeID: 0
    agentRadius: 0.5
    agentHeight: 2
    agentSlope: 48.8
    agentClimb: 0.5
    ledgeDropHeight: 0
    maxJumpAcrossDistance: 0
    minRegionArea: 2
    manualCellSize: 0
    cellSize: 0.16666667
    manualTileSize: 0
    tileSize: 256
    accuratePlacement: 0
    maxJobWorkers: 0
    preserveTilesOutsideBounds: 0
    debug:
      m_Flags: 0
  m_NavMeshData: {fileID: 23800000, guid: 500bdc4f43efa44419396184c47173e3, type: 2}
--- !u!1001 &818723590
PrefabInstance:
  m_ObjectHideFlags: 0
  serializedVersion: 2
  m_Modification:
    m_TransformParent: {fileID: 0}
    m_Modifications:
    - target: {fileID: 108413865003270438, guid: f45b0cd6445e7764eb43a3d719b195c1, type: 3}
      propertyPath: m_Enabled
      value: 0
      objectReference: {fileID: 0}
    - target: {fileID: 2261815860044596248, guid: f45b0cd6445e7764eb43a3d719b195c1, type: 3}
      propertyPath: m_Name
      value: SimpleFPController
      objectReference: {fileID: 0}
    - target: {fileID: 2261815860044596250, guid: f45b0cd6445e7764eb43a3d719b195c1, type: 3}
      propertyPath: m_RootOrder
      value: 1
      objectReference: {fileID: 0}
    - target: {fileID: 2261815860044596250, guid: f45b0cd6445e7764eb43a3d719b195c1, type: 3}
      propertyPath: m_LocalPosition.x
      value: 27.789
      objectReference: {fileID: 0}
    - target: {fileID: 2261815860044596250, guid: f45b0cd6445e7764eb43a3d719b195c1, type: 3}
      propertyPath: m_LocalPosition.y
      value: 0.731
      objectReference: {fileID: 0}
    - target: {fileID: 2261815860044596250, guid: f45b0cd6445e7764eb43a3d719b195c1, type: 3}
      propertyPath: m_LocalPosition.z
      value: 75.916
      objectReference: {fileID: 0}
    - target: {fileID: 2261815860044596250, guid: f45b0cd6445e7764eb43a3d719b195c1, type: 3}
      propertyPath: m_LocalRotation.w
      value: -0.0000001872535
      objectReference: {fileID: 0}
    - target: {fileID: 2261815860044596250, guid: f45b0cd6445e7764eb43a3d719b195c1, type: 3}
      propertyPath: m_LocalRotation.x
      value: 0
      objectReference: {fileID: 0}
    - target: {fileID: 2261815860044596250, guid: f45b0cd6445e7764eb43a3d719b195c1, type: 3}
      propertyPath: m_LocalRotation.y
      value: 1
      objectReference: {fileID: 0}
    - target: {fileID: 2261815860044596250, guid: f45b0cd6445e7764eb43a3d719b195c1, type: 3}
      propertyPath: m_LocalRotation.z
      value: -0
      objectReference: {fileID: 0}
    - target: {fileID: 2261815860044596250, guid: f45b0cd6445e7764eb43a3d719b195c1, type: 3}
      propertyPath: m_LocalEulerAnglesHint.x
      value: 0
      objectReference: {fileID: 0}
    - target: {fileID: 2261815860044596250, guid: f45b0cd6445e7764eb43a3d719b195c1, type: 3}
      propertyPath: m_LocalEulerAnglesHint.y
      value: 180.00002
      objectReference: {fileID: 0}
    - target: {fileID: 2261815860044596250, guid: f45b0cd6445e7764eb43a3d719b195c1, type: 3}
      propertyPath: m_LocalEulerAnglesHint.z
      value: 0
      objectReference: {fileID: 0}
    m_RemovedComponents: []
  m_SourcePrefab: {fileID: 100100000, guid: f45b0cd6445e7764eb43a3d719b195c1, type: 3}
--- !u!1 &1545714923
GameObject:
  m_ObjectHideFlags: 0
  m_CorrespondingSourceObject: {fileID: 0}
  m_PrefabInstance: {fileID: 0}
  m_PrefabAsset: {fileID: 0}
  serializedVersion: 6
  m_Component:
  - component: {fileID: 1545714925}
  - component: {fileID: 1545714924}
  m_Layer: 0
  m_Name: Sun
  m_TagString: Sun
  m_Icon: {fileID: 0}
  m_NavMeshLayer: 0
  m_StaticEditorFlags: 0
  m_IsActive: 1
--- !u!108 &1545714924
Light:
  m_ObjectHideFlags: 0
  m_CorrespondingSourceObject: {fileID: 0}
  m_PrefabInstance: {fileID: 0}
  m_PrefabAsset: {fileID: 0}
  m_GameObject: {fileID: 1545714923}
  m_Enabled: 1
  serializedVersion: 10
  m_Type: 1
  m_Shape: 0
  m_Color: {r: 1, g: 0.665, b: 0.41911763, a: 1}
  m_Intensity: 10
  m_Range: 10
  m_SpotAngle: 30
  m_InnerSpotAngle: 21.80208
  m_CookieSize: 10
  m_Shadows:
    m_Type: 2
    m_Resolution: 2
    m_CustomResolution: -1
    m_Strength: 1
    m_Bias: 0.015
    m_NormalBias: 0.2
    m_NearPlane: 0.2
    m_CullingMatrixOverride:
      e00: 1
      e01: 0
      e02: 0
      e03: 0
      e10: 0
      e11: 1
      e12: 0
      e13: 0
      e20: 0
      e21: 0
      e22: 1
      e23: 0
      e30: 0
      e31: 0
      e32: 0
      e33: 1
    m_UseCullingMatrixOverride: 0
  m_Cookie: {fileID: 0}
  m_DrawHalo: 0
  m_Flare: {fileID: 0}
  m_RenderMode: 0
  m_CullingMask:
    serializedVersion: 2
    m_Bits: 4294967295
  m_RenderingLayerMask: 1
  m_Lightmapping: 1
  m_LightShadowCasterMode: 0
  m_AreaSize: {x: 1, y: 1}
  m_BounceIntensity: 1.6
  m_ColorTemperature: 6570
  m_UseColorTemperature: 0
  m_BoundingSphereOverride: {x: 0, y: 0, z: 0, w: 0}
  m_UseBoundingSphereOverride: 0
  m_UseViewFrustumForShadowCasterCull: 1
  m_ShadowRadius: 0
  m_ShadowAngle: 0
--- !u!4 &1545714925
Transform:
  m_ObjectHideFlags: 0
  m_CorrespondingSourceObject: {fileID: 0}
  m_PrefabInstance: {fileID: 0}
  m_PrefabAsset: {fileID: 0}
  m_GameObject: {fileID: 1545714923}
  m_LocalRotation: {x: 0.044624142, y: -0.79080933, z: 0.05807342, w: 0.60766506}
  m_LocalPosition: {x: 27.879, y: 3.992, z: 57.814}
  m_LocalScale: {x: 1, y: 1, z: 1}
  m_Children: []
  m_Father: {fileID: 0}
  m_RootOrder: 0
  m_LocalEulerAnglesHint: {x: 8.4, y: -104.922005, z: 0}
--- !u!1001 &1109695703619918119
PrefabInstance:
  m_ObjectHideFlags: 0
  serializedVersion: 2
  m_Modification:
    m_TransformParent: {fileID: 0}
    m_Modifications:
    - target: {fileID: 5886710173003256048, guid: 7437dbccd619ccb4aa5a0b56783497d5, type: 3}
      propertyPath: m_Name
      value: school
      objectReference: {fileID: 0}
    - target: {fileID: 8384574335162482675, guid: 7437dbccd619ccb4aa5a0b56783497d5, type: 3}
      propertyPath: m_RootOrder
      value: 2
      objectReference: {fileID: 0}
    - target: {fileID: 8384574335162482675, guid: 7437dbccd619ccb4aa5a0b56783497d5, type: 3}
      propertyPath: m_LocalPosition.x
      value: 26.3564
      objectReference: {fileID: 0}
    - target: {fileID: 8384574335162482675, guid: 7437dbccd619ccb4aa5a0b56783497d5, type: 3}
      propertyPath: m_LocalPosition.y
      value: 11.153069
      objectReference: {fileID: 0}
    - target: {fileID: 8384574335162482675, guid: 7437dbccd619ccb4aa5a0b56783497d5, type: 3}
      propertyPath: m_LocalPosition.z
      value: 63.010437
      objectReference: {fileID: 0}
    - target: {fileID: 8384574335162482675, guid: 7437dbccd619ccb4aa5a0b56783497d5, type: 3}
      propertyPath: m_LocalRotation.w
      value: 1
      objectReference: {fileID: 0}
    - target: {fileID: 8384574335162482675, guid: 7437dbccd619ccb4aa5a0b56783497d5, type: 3}
      propertyPath: m_LocalRotation.x
      value: 0
      objectReference: {fileID: 0}
    - target: {fileID: 8384574335162482675, guid: 7437dbccd619ccb4aa5a0b56783497d5, type: 3}
      propertyPath: m_LocalRotation.y
      value: 0
      objectReference: {fileID: 0}
    - target: {fileID: 8384574335162482675, guid: 7437dbccd619ccb4aa5a0b56783497d5, type: 3}
      propertyPath: m_LocalRotation.z
      value: 0
      objectReference: {fileID: 0}
    - target: {fileID: 8384574335162482675, guid: 7437dbccd619ccb4aa5a0b56783497d5, type: 3}
      propertyPath: m_LocalEulerAnglesHint.x
      value: 0
      objectReference: {fileID: 0}
    - target: {fileID: 8384574335162482675, guid: 7437dbccd619ccb4aa5a0b56783497d5, type: 3}
      propertyPath: m_LocalEulerAnglesHint.y
      value: 0
      objectReference: {fileID: 0}
    - target: {fileID: 8384574335162482675, guid: 7437dbccd619ccb4aa5a0b56783497d5, type: 3}
      propertyPath: m_LocalEulerAnglesHint.z
      value: 0
      objectReference: {fileID: 0}
    m_RemovedComponents: []
  m_SourcePrefab: {fileID: 100100000, guid: 7437dbccd619ccb4aa5a0b56783497d5, type: 3}
